,city_code,city_name,country_name
0,LWN,Гюмри,Армения
1,EVN,Ереван,Армения
2,KBL,Кабул,Афганистан
3,MSQ,Минск,Беларусь
4,BNX,Баня-Лука,Босния и Герцеговина
5,SJJ,Сараево,Босния и Герцеговина
6,RIO,Рио-де-Жанейро,Бразилия
7,SAO,Сан-Паулу,Бразилия
8,BFS,Белфаст,Великобритания
9,LON,Лондон,Великобритания
10,MAN,Манчестер,Великобритания
11,EDI,Эдинбург,Великобритания
12,GIB,Гибралтар,Гибралтар
13,ATH,Афины,Греция
14,HER,Ираклион (Крит),Греция
15,RHO,Родос,Греция
16,SKG,Салоники,Греция
17,JTR,Санторини,Греция
18,BUS,Батуми,Грузия
19,KUT,Кутаиси,Грузия
20,SUI,Сухум,Грузия
21,TBS,Тбилиси,Грузия
22,PUJ,Пунта-Кана,Доминиканская Республика
23,SDQ,Санто-Доминго,Доминиканская Республика
24,CAI,Каир,Египет
25,HRG,Хургада,Египет
26,SSH,Шарм-эль-Шейх,Египет
27,BUQ,Булавайо,Зимбабве
28,VFA,Виктория-Фоллс,Зимбабве
29,HRE,Хараре,Зимбабве
30,AQJ,Акаба,Иордания
31,AMM,Амман,Иордания
32,ALA,Алматы,Казахстан
33,NQZ,Нур-Султан (Астана),Казахстан
34,NBO,Найроби,Кения
35,LCA,Ларнака,Кипр
36,ECN,Никосия,Кипр
37,PFO,Пафос,Кипр
38,FRU,Бишкек,Киргизия
39,IKU,Иссык-Куль,Киргизия
40,BOG,Богота,Колумбия
41,PRN,Приштина,Косово
42,FON,Ла Фортуна,Коста Рика
43,SJO,Сан-Хосе,Коста Рика
44,VRA,Варадеро,Куба
45,HAV,Гавана,Куба
46,CCC,Кайо-Коко,Куба
47,HOG,Ольгин,Куба
48,SNU,Санта-Клара,Куба
49,BEY,Бейрут,Ливан
50,GAN,Ган,Мальдивы
51,MLE,Мале,Мальдивы
52,AGA,Агадир,Марокко
53,CAS,Касабланка,Марокко
54,CUN,Канкун,Мексика
55,MEX,Мехико,Мексика
56,KIV,Кишинёв,Молдавия
57,INU,Науру Айленд,Науру
58,AUH,Абу-Даби,ОАЭ
59,AAN,Аль-Айн,ОАЭ
60,DXB,Дубай,ОАЭ
61,SHJ,Шарджа,ОАЭ
62,MCT,Маскат,Оман
63,SKP,Скопье,Северная Македония
64,SEZ,Маэ,Сейшелы
65,PRI,Праслен,Сейшелы
66,BEG,Белград,Сербия
67,SIN,Сингапур,Сингапур
68,LJU,Любляна,Словения
69,DAR,Дар-эс-Салам,Танзания
70,ZNZ,Занзибар,Танзания
71,JRO,Килиманджаро,Танзания
72,TBU,Нукуалофа,Тонга
73,DJE,Джерба,Тунис
74,TUN,Тунис,Тунис
75,GZP,Алания,Турция
76,ANK,Анкара,Турция
77,AYT,Анталья,Турция
78,BJV,Бодрум,Турция
79,IST,Стамбул,Турция
80,TAS,Ташкент,Узбекистан
81,IEV,Киев,Украина
82,DBV,Дубровник,Хорватия
83,ZAG,Загреб,Хорватия
84,BGF,Банги,ЦАР
85,TGD,Подгорица,Черногория
86,TIV,Тиват,Черногория
87,IPC,Остров Пасхи,Чили
88,SCL,Сантьяго,Чили
89,EAP,Базель,Швейцария
90,BRN,Берн,Швейцария
91,GVA,Женева,Швейцария
92,ZRH,Цюрих,Швейцария
93,CMB,Коломбо,Шри-Ланка
94,SSG,Малабо,Экваториальная Гвинея
95,ADD,Аддис-Абеба,Эфиопия
96,DUR,Дурбан,ЮАР
97,JNB,Йоханнесбург,ЮАР
98,CPT,Кейптаун,ЮАР
99,PUS,Пусан,Южная Корея
100,SEL,Сеул,Южная Корея
101,OKA,Окинава,Япония
102,TYO,Токио,Япония
103,FUK,Фукуока,Япония
